Adv lab 2/lab 2/Lab2Data_Jeff/jeff/aluminumtest1.csv

Record Length,2500,Points,-899.999984540E-6,83.200000226E-3,,Record Length,2500,Points,-899.999984540E-6,-79.999998212E-3,
Sample Interval,400.00000467E-9,s,-899.599981494E-6,-83.200000226E-3,,Sample Interval,400.00000467E-9,s,-899.599981494E-6,0.0,
Trigger Point,2.2500000E3,Samples,-899.199978448E-6,0.0,,Trigger Point,2.2500000E3,Samples,-899.199978448E-6,-39.99999911E-3,
,,,-898.799975403E-6,0.0,,,,,-898.799975403E-6,-79.999998212E-3,
,,,-898.399972357E-6,0.0,,,,,-898.399972357E-6,-79.999998212E-3,
,,,-897.999969311E-6,-166.40000045E-3,,,,,-897.999969311E-6,39.99999911E-3,
Source,CH1,,-897.599966265E-6,166.40000045E-3,,Source,CH2,,-897.599966265E-6,-79.999998212E-3,
Vertical Units,Volts,,-897.199963219E-6,-332.80000091E-3,,Vertical Units,Volts,,-897.199963219E-6,-39.99999911E-3,
Vertical Scale,2.0800000,,-896.799960174E-6,0.0,,Vertical Scale,999.999977648E-3,,-896.799960174E-6,-39.99999911E-3,
Vertical Offset,0,,-896.399957128E-6,83.200000226E-3,,Vertical Offset,0,,-896.399957128E-6,-79.999998212E-3,
Horizontal Units,s,,-896.000012290E-6,416.000008583E-3,,Horizontal Units,s,,-896.000012290E-6,-79.999998212E-3,
Horizontal Scale,100.0000012E-6,,-895.600009244E-6,-83.200000226E-3,,Horizontal Scale,100.0000012E-6,,-895.600009244E-6,0.0,
Pt Fmt,Y,,-895.200006198E-6,0.0,,Pt Fmt,Y,,-895.200006198E-6,-39.99999911E-3,
Yzero,0.0,,-894.800003152E-6,0.0,,Yzero,-1.0400000,,-894.800003152E-6,-39.99999911E-3,
Probe Atten,1.000000,,-894.400000107E-6,-83.200000226E-3,,Probe Atten,1.000000,,-894.400000107E-6,0.0,
,,,-893.999997061E-6,-166.40000045E-3,,,,,-893.999997061E-6,-39.99999911E-3,
Note,TDS 1002B - 12:17:21 PM   2/15/2024,,-893.599994015E-6,-83.200000226E-3,,Note,TDS 1002B - 12:17:21 PM   2/15/2024,,-893.599994015E-6,-39.99999911E-3,
,,,-893.199990969E-6,-249.59999323E-3,,,,,-893.199990969E-6,0.0,
,,,-892.799987923E-6,83.200000226E-3,,,,,-892.799987923E-6,-39.99999911E-3,
,,,-892.399984878E-6,-249.59999323E-3,,,,,-892.399984878E-6,-39.99999911E-3,
,,,-891.999981832E-6,0.0,,,,,-891.999981832E-6,-39.99999911E-3,
,,,-891.599978786E-6,0.0,,,,,-891.599978786E-6,-39.99999911E-3,
,,,-891.199975740E-6,83.200000226E-3,,,,,-891.199975740E-6,-39.99999911E-3,
,,,-890.799972694E-6,-83.200000226E-3,,,,,-890.799972694E-6,-119.9999973E-3,
,,,-890.399969649E-6,83.200000226E-3,,,,,-890.399969649E-6,0.0,
,,,-889.999966603E-6,-166.40000045E-3,,,,,-889.999966603E-6,0.0,
,,,-889.599963557E-6,0.0,,,,,-889.599963557E-6,-39.99999911E-3,
,,,-889.199960511E-6,-166.40000045E-3,,,,,-889.199960511E-6,-39.99999911E-3,
,,,-888.799957465E-6,-166.40000045E-3,,,,,-888.799957465E-6,-39.99999911E-3,
,,,-888.400012627E-6,-166.40000045E-3,,,,,-888.400012627E-6,0.0,
,,,-888.000009581E-6,83.200000226E-3,,,,,-888.000009581E-6,-39.99999911E-3,
,,,-887.600006536E-6,-249.59999323E-3,,,,,-887.600006536E-6,-39.99999911E-3,
,,,-887.200003490E-6,83.200000226E-3,,,,,-887.200003490E-6,79.999998212E-3,
,,,-886.800000444E-6,0.0,,,,,-886.800000444E-6,-39.99999911E-3,
,,,-886.399997398E-6,0.0,,,,,-886.399997398E-6,0.0,
,,,-885.999994352E-6,-166.40000045E-3,,,,,-885.999994352E-6,0.0,
,,,-885.599991307E-6,166.40000045E-3,,,,,-885.599991307E-6,39.99999911E-3,
,,,-885.199988261E-6,-249.59999323E-3,,,,,-885.199988261E-6,-39.99999911E-3,
,,,-884.799985215E-6,166.40000045E-3,,,,,-884.799985215E-6,0.0,
,,,-884.399982169E-6,0.0,,,,,-884.399982169E-6,-39.99999911E-3,
,,,-883.999979123E-6,166.40000045E-3,,,,,-883.999979123E-6,0.0,
,,,-883.599976078E-6,-83.200000226E-3,,,,,-883.599976078E-6,39.99999911E-3,
,,,-883.199973032E-6,0.0,,,,,-883.199973032E-6,-79.999998212E-3,
,,,-882.799969986E-6,-83.200000226E-3,,,,,-882.799969986E-6,-39.99999911E-3,
,,,-882.399966940E-6,0.0,,,,,-882.399966940E-6,0.0,
,,,-881.999963894E-6,0.0,,,,,-881.999963894E-6,0.0,
,,,-881.599960849E-6,83.200000226E-3,,,,,-881.599960849E-6,-39.99999911E-3,
,,,-881.199957803E-6,-249.59999323E-3,,,,,-881.199957803E-6,-79.999998212E-3,
,,,-880.800012965E-6,-166.40000045E-3,,,,,-880.800012965E-6,-79.999998212E-3,
,,,-880.400009919E-6,-249.59999323E-3,,,,,-880.400009919E-6,39.99999911E-3,
,,,-880.000006873E-6,332.80000091E-3,,,,,-880.000006873E-6,39.99999911E-3,
,,,-879.600003827E-6,83.200000226E-3,,,,,-879.600003827E-6,-39.99999911E-3,
,,,-879.200000782E-6,0.0,,,,,-879.200000782E-6,-119.9999973E-3,
,,,-878.799997736E-6,-83.200000226E-3,,,,,-878.799997736E-6,0.0,
,,,-878.399994690E-6,-83.200000226E-3,,,,,-878.399994690E-6,-39.99999911E-3,
,,,-877.999991644E-6,166.40000045E-3,,,,,-877.999991644E-6,0.0,
,,,-877.599988598E-6,166.40000045E-3,,,,,-877.599988598E-6,-39.99999911E-3,
,,,-877.199985553E-6,83.200000226E-3,,,,,-877.199985553E-6,-39.99999911E-3,
,,,-876.799982507E-6,0.0,,,,,-876.799982507E-6,-39.99999911E-3,
,,,-876.399979461E-6,166.40000045E-3,,,,,-876.399979461E-6,39.99999911E-3,
,,,-875.999976415E-6,83.200000226E-3,,,,,-875.999976415E-6,-39.99999911E-3,
,,,-875.599973369E-6,-249.59999323E-3,,,,,-875.599973369E-6,79.999998212E-3,
,,,-875.199970324E-6,0.0,,,,,-875.199970324E-6,0.0,
,,,-874.799967278E-6,83.200000226E-3,,,,,-874.799967278E-6,-39.99999911E-3,
,,,-874.399964232E-6,-83.200000226E-3,,,,,-874.399964232E-6,-39.99999911E-3,
,,,-873.999961186E-6,-332.80000091E-3,,,,,-873.999961186E-6,79.999998212E-3,
,,,-873.599958140E-6,83.200000226E-3,,,,,-873.599958140E-6,0.0,
,,,-873.200013302E-6,-83.200000226E-3,,,,,-873.200013302E-6,-39.99999911E-3,
,,,-872.800010256E-6,83.200000226E-3,,,,,-872.800010256E-6,-39.99999911E-3,
,,,-872.400007211E-6,166.40000045E-3,,,,,-872.400007211E-6,0.0,
,,,-872.000004165E-6,0.0,,,,,-872.000004165E-6,-39.99999911E-3,
,,,-871.600001119E-6,0.0,,,,,-871.600001119E-6,0.0,
,,,-871.199998073E-6,0.0,,,,,-871.199998073E-6,-39.99999911E-3,
,,,-870.799995027E-6,-83.200000226E-3,,,,,-870.799995027E-6,0.0,
,,,-870.399991982E-6,-83.200000226E-3,,,,,-870.399991982E-6,39.99999911E-3,
,,,-869.999988936E-6,83.200000226E-3,,,,,-869.999988936E-6,0.0,
,,,-869.599985890E-6,166.40000045E-3,,,,,-869.599985890E-6,-39.99999911E-3,
,,,-869.199982844E-6,-83.200000226E-3,,,,,-869.199982844E-6,0.0,
,,,-868.799979798E-6,-83.200000226E-3,,,,,-868.799979798E-6,-79.999998212E-3,
,,,-868.399976753E-6,-166.40000045E-3,,,,,-868.399976753E-6,-39.99999911E-3,
,,,-867.999973707E-6,0.0,,,,,-867.999973707E-6,39.99999911E-3,
,,,-867.599970661E-6,83.200000226E-3,,,,,-867.599970661E-6,-39.99999911E-3,
,,,-867.199967615E-6,-83.200000226E-3,,,,,-867.199967615E-6,0.0,
,,,-866.799964570E-6,-83.200000226E-3,,,,,-866.799964570E-6,-79.999998212E-3,
,,,-866.399961524E-6,0.0,,,,,-866.399961524E-6,-39.99999911E-3,
,,,-865.999958478E-6,0.0,,,,,-865.999958478E-6,0.0,
,,,-865.599955432E-6,-83.200000226E-3,,,,,-865.599955432E-6,-39.99999911E-3,
,,,-865.200010594E-6,83.200000226E-3,,,,,-865.200010594E-6,0.0,
,,,-864.800007548E-6,0.0,,,,,-864.800007548E-6,0.0,
,,,-864.400004502E-6,-166.40000045E-3,,,,,-864.400004502E-6,0.0,
,,,-864.000001457E-6,0.0,,,,,-864.000001457E-6,-39.99999911E-3,
,,,-863.599998411E-6,-83.200000226E-3,,,,,-863.599998411E-6,-39.99999911E-3,
,,,-863.199995365E-6,0.0,,,,,-863.199995365E-6,0.0,
,,,-862.799992319E-6,0.0,,,,,-862.799992319E-6,-119.9999973E-3,
,,,-862.399989273E-6,-166.40000045E-3,,,,,-862.399989273E-6,-39.99999911E-3,
,,,-861.999986228E-6,-332.80000091E-3,,,,,-861.999986228E-6,0.0,
,,,-861.599983182E-6,332.80000091E-3,,,,,-861.599983182E-6,-39.99999911E-3,
,,,-861.199980136E-6,-332.80000091E-3,,,,,-861.199980136E-6,-119.9999973E-3,
,,,-860.799977090E-6,0.0,,,,,-860.799977090E-6,0.0,
,,,-860.399974044E-6,0.0,,,,,-860.399974044E-6,-79.999998212E-3,
,,,-859.999970999E-6,0.0,,,,,-859.999970999E-6,-79.999998212E-3,
,,,-859.599967953E-6,-332.80000091E-3,,,,,-859.599967953E-6,-79.999998212E-3,
,,,-859.199964907E-6,166.40000045E-3,,,,,-859.199964907E-6,0.0,
,,,-858.799961861E-6,-166.40000045E-3,,,,,-858.799961861E-6,-39.99999911E-3,
,,,-858.399958815E-6,0.0,,,,,-858.399958815E-6,-39.99999911E-3,
,,,-857.999955770E-6,83.200000226E-3,,,,,-857.999955770E-6,-39.99999911E-3,
,,,-857.600010931E-6,249.59999323E-3,,,,,-857.600010931E-6,-39.99999911E-3,
,,,-857.200007886E-6,-249.59999323E-3,,,,,-857.200007886E-6,0.0,
,,,-856.800004840E-6,166.40000045E-3,,,,,-856.800004840E-6,0.0,
,,,-856.400001794E-6,0.0,,,,,-856.400001794E-6,0.0,
,,,-855.999998748E-6,83.200000226E-3,,,,,-855.999998748E-6,-39.99999911E-3,
,,,-855.599995703E-6,166.40000045E-3,,,,,-855.599995703E-6,-79.999998212E-3,
,,,-855.199992657E-6,0.0,,,,,-855.199992657E-6,0.0,
,,,-854.799989611E-6,-83.200000226E-3,,,,,-854.799989611E-6,0.0,
,,,-854.399986565E-6,-83.200000226E-3,,,,,-854.399986565E-6,-79.999998212E-3,
,,,-853.999983519E-6,0.0,,,,,-853.999983519E-6,0.0,
,,,-853.599980474E-6,0.0,,,,,-853.599980474E-6,0.0,
,,,-853.199977428E-6,83.200000226E-3,,,,,-853.199977428E-6,0.0,
,,,-852.799974382E-6,0.0,,,,,-852.799974382E-6,-39.99999911E-3,
,,,-852.399971336E-6,-166.40000045E-3,,,,,-852.399971336E-6,39.99999911E-3,
,,,-851.999968290E-6,83.200000226E-3,,,,,-851.999968290E-6,-79.999998212E-3,
,,,-851.599965245E-6,-83.200000226E-3,,,,,-851.599965245E-6,39.99999911E-3,
,,,-851.199962199E-6,332.80000091E-3,,,,,-851.199962199E-6,0.0,
,,,-850.799959153E-6,-166.40000045E-3,,,,,-850.799959153E-6,0.0,
,,,-850.399956107E-6,0.0,,,,,-850.399956107E-6,-39.99999911E-3,
,,,-850.000011269E-6,0.0,,,,,-850.000011269E-6,0.0,
,,,-849.600008223E-6,0.0,,,,,-849.600008223E-6,-79.999998212E-3,
,,,-849.200005177E-6,-416.000008583E-3,,,,,-849.200005177E-6,39.99999911E-3,
,,,-848.800002132E-6,83.200000226E-3,,,,,-848.800002132E-6,-39.99999911E-3,
,,,-848.399999086E-6,0.0,,,,,-848.399999086E-6,39.99999911E-3,
,,,-847.999996040E-6,83.200000226E-3,,,,,-847.999996040E-6,-39.99999911E-3,
,,,-847.599992994E-6,-83.200000226E-3,,,,,-847.599992994E-6,39.99999911E-3,
,,,-847.199989948E-6,83.200000226E-3,,,,,-847.199989948E-6,-39.99999911E-3,
,,,-846.799986903E-6,-166.40000045E-3,,,,,-846.799986903E-6,79.999998212E-3,
,,,-846.399983857E-6,249.59999323E-3,,,,,-846.399983857E-6,-39.99999911E-3,
,,,-845.999980811E-6,83.200000226E-3,,,,,-845.999980811E-6,0.0,
,,,-845.599977765E-6,249.59999323E-3,,,,,-845.599977765E-6,-39.99999911E-3,
,,,-845.199974719E-6,0.0,,,,,-845.199974719E-6,39.99999911E-3,
,,,-844.799971674E-6,0.0,,,,,-844.799971674E-6,39.99999911E-3,
,,,-844.399968628E-6,-166.40000045E-3,,,,,-844.399968628E-6,-39.99999911E-3,
,,,-843.999965582E-6,0.0,,,,,-843.999965582E-6,-39.99999911E-3,
,,,-843.599962536E-6,0.0,,,,,-843.599962536E-6,-79.999998212E-3,
,,,-843.199959490E-6,83.200000226E-3,,,,,-843.199959490E-6,-39.99999911E-3,
,,,-842.799956445E-6,-249.59999323E-3,,,,,-842.799956445E-6,39.99999911E-3,
,,,-842.400011607E-6,83.200000226E-3,,,,,-842.400011607E-6,-39.99999911E-3,
,,,-842.000008561E-6,166.40000045E-3,,,,,-842.000008561E-6,0.0,
,,,-841.600005515E-6,-83.200000226E-3,,,,,-841.600005515E-6,39.99999911E-3,
,,,-841.200002469E-6,-83.200000226E-3,,,,,-841.200002469E-6,0.0,
,,,-840.799999423E-6,0.0,,,,,-840.799999423E-6,0.0,
,,,-840.399996378E-6,0.0,,,,,-840.399996378E-6,39.99999911E-3,
,,,-839.999993332E-6,0.0,,,,,-839.999993332E-6,-79.999998212E-3,
,,,-839.599990286E-6,166.40000045E-3,,,,,-839.599990286E-6,0.0,
,,,-839.199987240E-6,83.200000226E-3,,,,,-839.199987240E-6,-39.99999911E-3,
,,,-838.799984194E-6,0.0,,,,,-838.799984194E-6,-79.999998212E-3,
,,,-838.399981149E-6,0.0,,,,,-838.399981149E-6,-39.99999911E-3,
,,,-837.999978103E-6,-166.40000045E-3,,,,,-837.999978103E-6,-79.999998212E-3,
,,,-837.599975057E-6,0.0,,,,,-837.599975057E-6,39.99999911E-3,
,,,-837.199972011E-6,-332.80000091E-3,,,,,-837.199972011E-6,-39.99999911E-3,
,,,-836.799968965E-6,-83.200000226E-3,,,,,-836.799968965E-6,-39.99999911E-3,
,,,-836.399965920E-6,0.0,,,,,-836.399965920E-6,-39.99999911E-3,
,,,-835.999962874E-6,249.59999323E-3,,,,,-835.999962874E-6,0.0,
,,,-835.599959828E-6,-166.40000045E-3,,,,,-835.599959828E-6,-119.9999973E-3,
,,,-835.199956782E-6,0.0,,,,,-835.199956782E-6,-79.999998212E-3,
,,,-834.800011944E-6,-249.59999323E-3,,,,,-834.800011944E-6,-79.999998212E-3,
,,,-834.400008898E-6,83.200000226E-3,,,,,-834.400008898E-6,39.99999911E-3,
,,,-834.000005852E-6,83.200000226E-3,,,,,-834.000005852E-6,0.0,
,,,-833.600002807E-6,249.59999323E-3,,,,,-833.600002807E-6,-79.999998212E-3,
,,,-833.199999761E-6,-416.000008583E-3,,,,,-833.199999761E-6,0.0,
,,,-832.799996715E-6,249.59999323E-3,,,,,-832.799996715E-6,39.99999911E-3,
,,,-832.399993669E-6,-249.59999323E-3,,,,,-832.399993669E-6,-39.99999911E-3,
,,,-831.999990623E-6,0.0,,,,,-831.999990623E-6,0.0,
,,,-831.599987578E-6,0.0,,,,,-831.599987578E-6,-39.99999911E-3,
,,,-831.199984532E-6,166.40000045E-3,,,,,-831.199984532E-6,-79.999998212E-3,
,,,-830.799981486E-6,-83.200000226E-3,,,,,-830.799981486E-6,0.0,
,,,-830.399978440E-6,0.0,,,,,-830.399978440E-6,-39.99999911E-3,
,,,-829.999975394E-6,-166.40000045E-3,,,,,-829.999975394E-6,-119.9999973E-3,
,,,-829.599972349E-6,0.0,,,,,-829.599972349E-6,-39.99999911E-3,
,,,-829.199969303E-6,-83.200000226E-3,,,,,-829.199969303E-6,-39.99999911E-3,
,,,-828.799966257E-6,-83.200000226E-3,,,,,-828.799966257E-6,-39.99999911E-3,
,,,-828.399963211E-6,-166.40000045E-3,,,,,-828.399963211E-6,-79.999998212E-3,
,,,-827.999960165E-6,332.80000091E-3,,,,,-827.999960165E-6,-39.99999911E-3,
,,,-827.599957120E-6,-166.40000045E-3,,,,,-827.599957120E-6,-39.99999911E-3,
,,,-827.200012282E-6,0.0,,,,,-827.200012282E-6,0.0,
,,,-826.800009236E-6,0.0,,,,,-826.800009236E-6,-39.99999911E-3,
,,,-826.400006190E-6,-166.40000045E-3,,,,,-826.400006190E-6,0.0,
,,,-826.000003144E-6,-83.200000226E-3,,,,,-826.000003144E-6,-79.999998212E-3,
,,,-825.600000098E-6,0.0,,,,,-825.600000098E-6,-79.999998212E-3,
,,,-825.199997053E-6,-166.40000045E-3,,,,,-825.199997053E-6,-39.99999911E-3,
,,,-824.799994007E-6,0.0,,,,,-824.799994007E-6,-39.99999911E-3,
,,,-824.399990961E-6,0.0,,,,,-824.399990961E-6,0.0,
,,,-823.999987915E-6,0.0,,,,,-823.999987915E-6,-39.99999911E-3,
,,,-823.599984869E-6,-166.40000045E-3,,,,,-823.599984869E-6,0.0,
,,,-823.199981824E-6,0.0,,,,,-823.199981824E-6,-79.999998212E-3,
,,,-822.799978778E-6,166.40000045E-3,,,,,-822.799978778E-6,-79.999998212E-3,
,,,-822.399975732E-6,166.40000045E-3,,,,,-822.399975732E-6,39.99999911E-3,
,,,-821.999972686E-6,166.40000045E-3,,,,,-821.999972686E-6,0.0,
,,,-821.599969640E-6,0.0,,,,,-821.599969640E-6,-39.99999911E-3,
,,,-821.199966595E-6,-166.40000045E-3,,,,,-821.199966595E-6,39.99999911E-3,
,,,-820.799963549E-6,83.200000226E-3,,,,,-820.799963549E-6,-39.99999911E-3,
,,,-820.399960503E-6,-249.59999323E-3,,,,,-820.399960503E-6,-79.999998212E-3,
,,,-819.999957457E-6,0.0,,,,,-819.999957457E-6,-39.99999911E-3,
,,,-819.600012619E-6,0.0,,,,,-819.600012619E-6,-39.99999911E-3,
,,,-819.200009573E-6,-166.40000045E-3,,,,,-819.200009573E-6,-39.99999911E-3,
,,,-818.800006527E-6,-166.40000045E-3,,,,,-818.800006527E-6,39.99999911E-3,
,,,-818.400003482E-6,249.59999323E-3,,,,,-818.400003482E-6,0.0,
,,,-818.000000436E-6,-83.200000226E-3,,,,,-818.000000436E-6,39.99999911E-3,
,,,-817.599997390E-6,166.40000045E-3,,,,,-817.599997390E-6,0.0,
,,,-817.199994344E-6,0.0,,,,,-817.199994344E-6,-39.99999911E-3,
,,,-816.799991298E-6,249.59999323E-3,,,,,-816.799991298E-6,-39.99999911E-3,
,,,-816.399988253E-6,-83.200000226E-3,,,,,-816.399988253E-6,0.0,
,,,-815.999985207E-6,0.0,,,,,-815.999985207E-6,-39.99999911E-3,
,,,-815.599982161E-6,-83.200000226E-3,,,,,-815.599982161E-6,-39.99999911E-3,
,,,-815.199979115E-6,0.0,,,,,-815.199979115E-6,0.0,
,,,-814.799976069E-6,0.0,,,,,-814.799976069E-6,0.0,
,,,-814.399973024E-6,83.200000226E-3,,,,,-814.399973024E-6,0.0,
,,,-813.999969978E-6,-332.80000091E-3,,,,,-813.999969978E-6,0.0,
,,,-813.599966932E-6,166.40000045E-3,,,,,-813.599966932E-6,39.99999911E-3,
,,,-813.199963886E-6,-83.200000226E-3,,,,,-813.199963886E-6,0.0,
,,,-812.799960840E-6,166.40000045E-3,,,,,-812.799960840E-6,0.0,
,,,-812.399957795E-6,0.0,,,,,-812.399957795E-6,0.0,
,,,-811.999954749E-6,166.40000045E-3,,,,,-811.999954749E-6,-39.99999911E-3,
,,,-811.600009911E-6,166.40000045E-3,,,,,-811.600009911E-6,0.0,
,,,-811.200006865E-6,-83.200000226E-3,,,,,-811.200006865E-6,0.0,
,,,-810.800003819E-6,-249.59999323E-3,,,,,-810.800003819E-6,39.99999911E-3,
,,,-810.400000773E-6,0.0,,,,,-810.400000773E-6,-39.99999911E-3,
,,,-809.999997728E-6,0.0,,,,,-809.999997728E-6,0.0,
,,,-809.599994682E-6,0.0,,,,,-809.599994682E-6,0.0,
,,,-809.199991636E-6,-166.40000045E-3,,,,,-809.199991636E-6,0.0,
,,,-808.799988590E-6,166.40000045E-3,,,,,-808.799988590E-6,0.0,
,,,-808.399985544E-6,-166.40000045E-3,,,,,-808.399985544E-6,-39.99999911E-3,
,,,-807.999982499E-6,0.0,,,,,-807.999982499E-6,79.999998212E-3,
,,,-807.599979453E-6,-83.200000226E-3,,,,,-807.599979453E-6,-39.99999911E-3,
,,,-807.199976407E-6,83.200000226E-3,,,,,-807.199976407E-6,-39.99999911E-3,
,,,-806.799973361E-6,-249.59999323E-3,,,,,-806.799973361E-6,0.0,
,,,-806.399970315E-6,166.40000045E-3,,,,,-806.399970315E-6,0.0,
,,,-805.999967270E-6,-249.59999323E-3,,,,,-805.999967270E-6,-39.99999911E-3,
,,,-805.599964224E-6,249.59999323E-3,,,,,-805.599964224E-6,39.99999911E-3,
,,,-805.199961178E-6,-83.200000226E-3,,,,,-805.199961178E-6,-79.999998212E-3,
,,,-804.799958132E-6,249.59999323E-3,,,,,-804.799958132E-6,-39.99999911E-3,
,,,-804.399955086E-6,-499.199986458E-3,,,,,-804.399955086E-6,0.0,
,,,-804.000010248E-6,0.0,,,,,-804.000010248E-6,-79.999998212E-3,
,,,-803.600007202E-6,-249.59999323E-3,,,,,-803.600007202E-6,-39.99999911E-3,
,,,-803.200004157E-6,0.0,,,,,-803.200004157E-6,-39.99999911E-3,
,,,-802.800001111E-6,0.0,,,,,-802.800001111E-6,0.0,
,,,-802.399998065E-6,0.0,,,,,-802.399998065E-6,-39.99999911E-3,
,,,-801.999995019E-6,-166.40000045E-3,,,,,-801.999995019E-6,0.0,
,,,-801.599991973E-6,-83.200000226E-3,,,,,-801.599991973E-6,-79.999998212E-3,
,,,-801.199988928E-6,-249.59999323E-3,,,,,-801.199988928E-6,-39.99999911E-3,
,,,-800.799985882E-6,249.59999323E-3,,,,,-800.799985882E-6,39.99999911E-3,
,,,-800.399982836E-6,83.200000226E-3,,,,,-800.399982836E-6,-39.99999911E-3,
,,,-799.999979790E-6,-83.200000226E-3,,,,,-799.999979790E-6,-39.99999911E-3,
,,,-799.599976745E-6,-166.40000045E-3,,,,,-799.599976745E-6,-79.999998212E-3,
,,,-799.199973699E-6,83.200000226E-3,,,,,-799.199973699E-6,-39.99999911E-3,
,,,-798.799970653E-6,-166.40000045E-3,,,,,-798.799970653E-6,0.0,
,,,-798.399967607E-6,83.200000226E-3,,,,,-798.399967607E-6,0.0,
,,,-797.999964561E-6,0.0,,,,,-797.999964561E-6,-39.99999911E-3,
,,,-797.599961516E-6,0.0,,,,,-797.599961516E-6,-119.9999973E-3,
,,,-797.199958470E-6,-166.40000045E-3,,,,,-797.199958470E-6,0.0,
,,,-796.799955424E-6,-83.200000226E-3,,,,,-796.799955424E-6,-39.99999911E-3,
,,,-796.400010586E-6,-249.59999323E-3,,,,,-796.400010586E-6,-39.99999911E-3,
,,,-796.000007540E-6,166.40000045E-3,,,,,-796.000007540E-6,-39.99999911E-3,
,,,-795.600004494E-6,0.0,,,,,-795.600004494E-6,-39.99999911E-3,
,,,-795.200001448E-6,-83.200000226E-3,,,,,-795.200001448E-6,-79.999998212E-3,
,,,-794.799998403E-6,-499.199986458E-3,,,,,-794.799998403E-6,0.0,
,,,-794.399995357E-6,0.0,,,,,-794.399995357E-6,0.0,
,,,-793.999992311E-6,0.0,,,,,-793.999992311E-6,0.0,
,,,-793.599989265E-6,0.0,,,,,-793.599989265E-6,0.0,
,,,-793.199986219E-6,83.200000226E-3,,,,,-793.199986219E-6,39.99999911E-3,
,,,-792.799983174E-6,0.0,,,,,-792.799983174E-6,-39.99999911E-3,
,,,-792.399980128E-6,-83.200000226E-3,,,,,-792.399980128E-6,-79.999998212E-3,
,,,-791.999977082E-6,83.200000226E-3,,,,,-791.999977082E-6,0.0,
,,,-791.599974036E-6,-83.200000226E-3,,,,,-791.599974036E-6,-39.99999911E-3,
,,,-791.199970990E-6,0.0,,,,,-791.199970990E-6,0.0,
,,,-790.799967945E-6,83.200000226E-3,,,,,-790.799967945E-6,0.0,
,,,-790.399964899E-6,0.0,,,,,-790.399964899E-6,-39.99999911E-3,
,,,-789.999961853E-6,-83.200000226E-3,,,,,-789.999961853E-6,0.0,
,,,-789.599958807E-6,0.0,,,,,-789.599958807E-6,-39.99999911E-3,
,,,-789.199955761E-6,-249.59999323E-3,,,,,-789.199955761E-6,-39.99999911E-3,
,,,-788.800010923E-6,0.0,,,,,-788.800010923E-6,0.0,
,,,-788.400007877E-6,83.200000226E-3,,,,,-788.400007877E-6,-39.99999911E-3,
,,,-788.000004832E-6,166.40000045E-3,,,,,-788.000004832E-6,0.0,
,,,-787.600001786E-6,-166.40000045E-3,,,,,-787.600001786E-6,-79.999998212E-3,
,,,-787.199998740E-6,0.0,,,,,-787.199998740E-6,39.99999911E-3,
